id,name,model_id:id,group_id:id,perm_read,perm_write,perm_create,perm_unlink
access_website_support_ticket,access website.support.ticket,model_website_support_ticket,,1,1,1,0
access_website_support_ticket_compose,access website.support.ticket.compose,model_website_support_ticket_compose,,1,1,1,0
access_website_support_ticket_states,access website.support.ticket.states,model_website_support_ticket_states,,1,0,0,0
access_website_support_ticket_message,access website.support.ticket.message,model_website_support_ticket_message,,1,0,1,0
access_mail_followers_support,access.mail.followers.support,mail.model_mail_followers,,0,0,1,0
access_website_support_ticket_categories,access.website.support.ticket.categories,model_website_support_ticket_categories,,1,0,0,0
access_website_support_ticket_subcategory,access website.support.ticket.subcategory,model_website_support_ticket_subcategory,,1,0,0,0
access_website_support_ticket_priority,access.website.support.ticket.priority,model_website_support_ticket_priority,,1,0,0,0
access_website_support_ticket_tag,access.website.support.ticket.tag,model_website_support_ticket_tag,,1,1,1,1
access_website_support_ticket_close,access website.support.ticket.close,model_website_support_ticket_close,,1,1,1,1
access_website_support_ticket_approval,access website.support.ticket.approval,model_website_support_ticket_approval,,1,1,1,1
access_website_support_ticket_subcategory_field,access website.support.ticket.subcategory.field,model_website_support_ticket_subcategory_field,,1,1,1,1
access_website_support_ticket_field,access website.support.ticket.field,model_website_support_ticket_field,,1,1,1,1
access_website_support_ticket_user,website_support.website_support_ticket_user,model_website_support_ticket,website_support.group_ticket_user,1,1,1,0
access_project_category,project.category,model_project_category,base.group_user,1,1,1,0
access_tkt_site,tkt.site,model_tkt_site,base.group_user,1,1,1,0
access_tkt_team,tkt.team,model_tkt_team,base.group_user,1,1,1,0
access_request_type,request.type,model_request_type,base.group_user,1,1,1,0
access_work_categories,work.categories,model_work_categories,base.group_user,1,1,1,0

access_task_create_stock,access_create_task_inventory,stock.model_stock_picking,website_support.group_ticket_duty_office_user,1,1,1,0
access_task_create_stock_move,access_create_task_inventory_stock_move,stock.model_stock_move,website_support.group_ticket_duty_office_user,1,1,1,0
access_task_create_project_task_type,access_create_task_project_task_type,project.model_project_task_type,group_ticket_duty_office_user,1,1,1,0
access_task_order_proposal_user,access_top_user_user,sale.model_sale_order,website_support.group_engineering_office_user,1,1,1,0
access_task_create_user,access_create_task_user,project.model_project_task,website_support.group_ticket_duty_office_user,1,1,1,0
access_task_material_request_user,task_creat_analytic_line_user,analytic.model_account_analytic_line,website_support.group_ticket_duty_office_user,1,1,1,0
access_ticket_user_report,report_ticket_report_views,model_ticket_wizard,,1,0,0,0
